^C:\USERS\ALEXL\ONEDRIVE\DOCUMENTS\VISUAL STUDIO 2015\PROJECTS\ТРАНСПРОНИРОВАНИЕ\ТРАНСПРОНИРОВАНИЕ\SOURCE.CPP
C:\USERS\ALEXL\ONEDRIVE\DOCUMENTS\VISUAL STUDIO 2015\PROJECTS\транспронирование\транспронирование\DEBUG\VC140.PDB
C:\USERS\ALEXL\ONEDRIVE\DOCUMENTS\VISUAL STUDIO 2015\PROJECTS\транспронирование\транспронирование\DEBUG\VC140.IDB
C:\USERS\ALEXL\ONEDRIVE\DOCUMENTS\VISUAL STUDIO 2015\PROJECTS\транспронирование\транспронирование\DEBUG\SOURCE.OBJ
