^C:\USERS\ALEXL\ONEDRIVE\DOCUMENTS\VISUAL STUDIO 2015\PROJECTS\ТРАНСПРОНИРОВАНИЕ\ТРАНСПРОНИРОВАНИЕ\DEBUG\SOURCE.OBJ
C:\USERS\ALEXL\ONEDRIVE\DOCUMENTS\VISUAL STUDIO 2015\PROJECTS\транспронирование\DEBUG\транспронирование.ILK
C:\USERS\ALEXL\ONEDRIVE\DOCUMENTS\VISUAL STUDIO 2015\PROJECTS\транспронирование\DEBUG\транспронирование.EXE
C:\USERS\ALEXL\ONEDRIVE\DOCUMENTS\VISUAL STUDIO 2015\PROJECTS\ТРАНСПРОНИРОВАНИЕ\DEBUG\ТРАНСПРОНИРОВАНИЕ.PDB
